
STANDARD CELL PLACER run at 07:34:32 on 05/13/18.


$autoplace_standard_cells(@init_n_improve, @bal, 0, 0.000000) 


Bipartition pass  1 of 13, average nets cut: 117, cuts performed:  1 
Bipartition pass  2 of 13, average nets cut:  67, cuts performed:  1 
Bipartition pass  3 of 13, average nets cut:  72, cuts performed:  2 
Bipartition pass  4 of 13, average nets cut:  44, cuts performed:  2 
Bipartition pass  5 of 13, average nets cut:  35, cuts performed:  4 
Bipartition pass  6 of 13, average nets cut:  20, cuts performed:  4 
Bipartition pass  7 of 13, average nets cut:  14, cuts performed:  8 
Bipartition pass  8 of 13, average nets cut:   6, cuts performed:  8 
Bipartition pass  9 of 13, average nets cut:   0, cuts performed: 15 
Bipartition pass 10 of 13, average nets cut:   0, cuts performed: 16 
Bipartition pass 11 of 13, average nets cut:   0, cuts performed:  3 
Bipartition pass 12 of 13, average nets cut:   0, cuts performed: 21 
Bipartition pass 13 of 13, average nets cut:   0, cuts performed:  2 

Initial placement: CPU seconds: 0, Wall Core_clock seconds: 35

Iteration:     0, wire length: 270896  (T= 3.74) 
Iteration:   100, wire length: 251158  (T= 3.74)
Iteration:   200, wire length: 249305  (T= 3.74)
Iteration:   300, wire length: 247889  (T= 3.74)
Iteration:   400, wire length: 247074  (T= 3.74)
Iteration:   500, wire length: 246655  (T= 3.74)
Iteration:   600, wire length: 245319  (T= 2.64)
Iteration:   700, wire length: 244857  (T= 2.64)
Iteration:   800, wire length: 244001  (T= 1.87)
Iteration:   900, wire length: 243822  (T= 1.87)
Iteration:   960, wire length: 243524  (T= 0.93) 
Iteration:  1000, wire length: 240182  (T= 0.93)
Iteration:  1100, wire length: 239345  (T= 0.93)
Iteration:  1200, wire length: 239112  (T= 0.93)
Iteration:  1300, wire length: 239007  (T= 0.93)
Iteration:  1340, wire length: 238993  (T= 0.66) 
Iteration:  1400, wire length: 238883  (T= 0.66)
Iteration:  1500, wire length: 238819  (T= 0.66)
Iteration:  1600, wire length: 238746  (T= 0.47)
Iteration:  1700, wire length: 238724  (T= 0.47)
Iteration:  1760, wire length: 238721  (T= 0.23) 
Iteration:  1800, wire length: 238721  (T= 0.23)
Iteration:  1840, wire length: 238721  (T= 0.00) 

Final iteration: 1880, wire length: 237550  (T= 0.00) 

Detailed placement: CPU seconds: 1, Wall Core_clock seconds: 5
